Example Analysis (Fantasy Football Analysis 2023)
…
Code

# Finding out how each player compares to their projection

# data
data |> 
  # get rid of weeks 9-17
  filter(!Week %in% c(9:17)) |> 
  mutate(difference_actual_proj = PlayerScoreActual - PlayerScoreProjected) |> 
  arrange(difference_actual_proj) |> 
  group_by(PlayerName) |> 
  summarise(sum_diff = sum(difference_actual_proj)) |> 
  arrange(desc(sum_diff))

# A tibble: 235 × 2
   PlayerName          sum_diff
   <chr>                  <dbl>
 1 Zack Moss               49.6
 2 Cowboys D/ST            49.2
 3 A.J. Brown              42.3
 4 Raheem Mostert          35.1
 5 Tyreek Hill             32.5
 6 Travis Etienne Jr.      31.1
 7 Jordan Addison          29.7
 8 Christian McCaffrey     29.1
 9 DJ Moore                27.6
10 Keenan Allen            25.7
# ℹ 225 more rows

Code

# data
data |> 
  # get rid of weeks 9-17
  filter(!Week %in% c(9:17)) |> 
  mutate(difference_actual_proj = PlayerScoreActual - PlayerScoreProjected) |> 
  arrange(difference_actual_proj) |> 
  group_by(PlayerName) |> 
  summarise(sum_diff = sum(difference_actual_proj)) |> 
  arrange(sum_diff)

# A tibble: 235 × 2
   PlayerName         sum_diff
   <chr>                 <dbl>
 1 Miles Sanders         -38.7
 2 Joe Burrow            -35.0
 3 Patrick Mahomes       -31.6
 4 Davante Adams         -31.5
 5 Tony Pollard          -30.8
 6 Dalvin Cook           -28.4
 7 Alexander Mattison    -27.7
 8 Dameon Pierce         -27.4
 9 Tee Higgins           -27.4
10 Bijan Robinson        -27.4
# ℹ 225 more rows
…
